<?xml version="1.0" encoding="utf-8"?>
<!-- Generator: Adobe Illustrator 24.3.0, SVG Export Plug-In . SVG Version: 6.00 Build 0)  -->
<svg version="1.1" id="Laag_1" xmlns="http://www.w3.org/2000/svg" xmlns:xlink="http://www.w3.org/1999/xlink" x="0px" y="0px"
	 viewBox="0 0 710.3 141.7" style="enable-background:new 0 0 710.3 141.7;" xml:space="preserve">
<style type="text/css">
	.st0{fill:#52AE32;}
</style>
<polygon points="42.8,49.6 42.8,73.7 62.7,61.8 "/>
<g>
	<g>
		<path class="st0" d="M636.9,64.7c0,3.6,0.4,5.7,1.8,7.9c1.6,2.7,4,4.1,7.2,4.1c1.6,0,3.3-0.3,6.7-1.1l0.4,2.6c0,0-2.5,1-3.6,1.4
			c-3.1,1.1-5.6,1.6-7.5,1.6c-8,0-13-6.1-13-15.6c0-5.2,1.7-10.1,4.8-13.2c2.4-2.5,5-3.5,8.7-3.5c4.3,0,7.5,1.9,9.2,5.2
			c1.3,2.6,1.7,5.1,1.8,10.6H636.9z M644.4,54.1c-0.6-1.5-1.6-2.1-3.1-2.1c-3,0-4.2,2.6-4.3,9.4l8.4-0.9
			C645.2,57.6,645,55.5,644.4,54.1z"/>
	</g>
	<g>
		<path class="st0" d="M610.8,80.6v-1.9l4.5-2.5V55l-4.5-1.7v-1.9l12.5-2.6v27.5l4.5,2.5v1.9H610.8z M619.2,44.9
			c-3.3,0-4.7-1.2-4.7-3.9c0-2.6,1.5-3.9,4.7-3.9c3.2,0,4.7,1.2,4.7,3.8C623.9,43.6,622.4,44.9,619.2,44.9z"/>
	</g>
	<g>
		<path class="st0" d="M607.2,80.1c-2.5,0.8-5,1.1-6.4,1.1c-1.8,0-3.6-0.5-4.8-1.4c-1.5-1.1-2.3-3.1-2.3-6.6v-20h-3.9v-2.5
			c3.3-1.3,4.9-2.2,5.7-3.2c0.6-0.7,2.1-3.6,2.9-5.6h3.4v7.5h8.1v3.8h-8.1v17.8c0,2.2,0.1,3.2,0.6,4c0.6,1,1.9,1.6,3.3,1.6
			c1.2,0,2.5-0.2,4.1-0.5l0.5,2.9L607.2,80.1z"/>
	</g>
	<g>
		<path class="st0" d="M586.3,80.1c-1.5,0.6-3.1,1.1-4.7,1.1c-2.1,0-3-0.7-3.9-3.1c0,0-1.4,0.9-2.8,1.8c-1.7,1-2.8,1.3-4.7,1.3
			c-4.5,0-7.8-3.4-7.8-8.2c0-3.9,2.2-6.8,6-7.8c1.9-0.5,3.8-0.8,7.6-1.2c1-0.1,1-0.1,1.6-0.2v-7.1c0-2.1-0.3-3.3-1-4
			c-0.5-0.4-1.1-0.6-2.2-0.6c-0.6,0-1.1,0.1-1.9,0.2L570,58h-5.3v-6.4c0,0,1.8-0.6,4.1-1.3c3.3-1.1,4.9-1.4,7.5-1.4
			c2.5,0,4.3,0.4,5.8,1.4c2.4,1.4,3.1,3.2,3.1,6.7v18.2c0,0.4,0.3,0.6,1,0.8l3.5,1.1v1.9C588.7,79.4,586.3,80.1,586.3,80.1z
			 M577.5,66.6c-0.9,0.2-1.2,0.2-2.6,0.5c-3.4,0.5-4.7,1.8-4.7,4.8c0,3,1.4,4.4,4.5,4.4c0.8,0,1.4,0,2.5-0.2l0.3-0.1V66.6z"/>
	</g>
	<g>
		<path class="st0" d="M549.2,81.3c-1.4,0-3.2-0.3-5.4-0.8c-1.1-0.3-3.9-1.1-3.9-1.1V72h4.2l2.4,5.7c0.5,0.1,0.6,0.1,1.2,0.1
			c2.3,0,4.7-0.6,4.7-4.1c0-1.8-0.6-2.5-2.8-4.2l-4.4-3.4c-2.5-1.9-3.3-2.4-4-3.5c-0.9-1.4-1.3-2.9-1.3-4.6c0-5.3,4-9.1,9.7-9.1
			c1.6,0,3.8,0.4,5.6,0.8c1.2,0.2,3.5,0.9,3.5,0.9v6.9h-4.2l-2.4-5.1c-0.5-0.1-1-0.1-1.2-0.1c-2.3,0-3.8,1.4-3.8,3.5
			c0,1.5,0.7,2.4,2.6,3.8l4.7,3.4c1.9,1.4,3.2,2.5,4,4c0.7,1.3,1.1,2.8,1.1,4.5C559.4,77.3,555.2,81.3,549.2,81.3z"/>
	</g>
	<g>
		<path class="st0" d="M521.1,80.6v-1.9l4.5-2.5V55l-4.5-1.7v-1.9l12.5-2.6v27.5l4.5,2.5v1.9H521.1z M529.5,44.9
			c-3.3,0-4.7-1.2-4.7-3.9c0-2.6,1.5-3.9,4.7-3.9c3.2,0,4.7,1.2,4.7,3.8C534.2,43.6,532.7,44.9,529.5,44.9z"/>
	</g>
	<g>
		<path class="st0" d="M505,80.6v-1.9l3.1-2.5V62.1c0-3.8-0.1-4.7-0.8-6c-0.7-1.3-1.8-1.9-3.9-1.9c-1.1,0-2.2,0.1-3.9,0.4v21.6
			l3.4,2.5v1.9h-15.9v-1.9l4.5-2.5V55l-4.5-1.7v-1.9l12.5-2.6v3.5c1.8-0.8,3.2-1.5,4.9-2.2c2.6-1,3.2-1.1,4.2-1.1
			c1.9,0,4.4,0.9,5.6,2.8c1.5,2.1,2,4.1,2,8.5v16.1l4.5,2.5v1.9H505z"/>
	</g>
	<g>
		<path class="st0" d="M483,80.1c-1.5,0.6-3.1,1.1-4.7,1.1c-2.1,0-3-0.7-3.9-3.1c0,0-1.4,0.9-2.8,1.8c-1.7,1-2.8,1.3-4.7,1.3
			c-4.5,0-7.8-3.4-7.8-8.2c0-3.9,2.2-6.8,6-7.8c1.9-0.5,3.8-0.8,7.6-1.2c1-0.1,1-0.1,1.6-0.2v-7.1c0-2.1-0.3-3.3-1-4
			c-0.5-0.4-1.1-0.6-2.2-0.6c-0.6,0-1.1,0.1-1.9,0.2l-2.4,5.7h-5.3v-6.4c0,0,1.8-0.6,4.1-1.3c3.3-1.1,4.9-1.4,7.5-1.4
			c2.5,0,4.3,0.4,5.8,1.4c2.4,1.4,3.1,3.2,3.1,6.7v18.2c0,0.4,0.3,0.6,1,0.8l3.5,1.1v1.9C485.3,79.4,483,80.1,483,80.1z M474.1,66.6
			c-0.9,0.2-1.2,0.2-2.6,0.5c-3.4,0.5-4.7,1.8-4.7,4.8c0,3,1.4,4.4,4.5,4.4c0.8,0,1.4,0,2.5-0.2l0.3-0.1V66.6z"/>
	</g>
	<g>
		<path class="st0" d="M442.3,80.6v-1.9l3.1-2.5V62.1c0-3.8-0.1-4.7-0.8-6c-0.7-1.3-1.8-1.9-3.9-1.9c-1.1,0-2.2,0.1-3.9,0.4v21.6
			l3.4,2.5v1.9h-15.9v-1.9l4.5-2.5v-34l-4.5-1.7v-1.9l12.5-2.6v16.3c1.8-0.8,3.2-1.5,4.9-2.2c2.6-1,3.2-1.1,4.2-1.1
			c1.9,0,4.4,0.9,5.6,2.8c1.5,2.1,2,4.1,2,8.5v16.1l4.5,2.5v1.9H442.3z"/>
	</g>
	<g>
		<path class="st0" d="M420.1,79.8c-3.1,1-5.4,1.5-7.4,1.5c-7.6,0-12.9-6.2-12.9-15.1c0-10,6.1-16.9,15-16.9c3,0,5.9,0.8,8.5,1.6
			v7.4h-5l-2.4-5.9c-0.2,0-0.4,0.1-0.7,0.1c-5.3,1.2-7,6.7-7,12.5c0,3.8,0.8,6.6,2.4,8.6c1.5,1.9,3.8,3,6.8,3c1.5,0,2.5-0.2,5.7-0.9
			l0.4,2.8C423.6,78.6,421.3,79.4,420.1,79.8z"/>
	</g>
	<g>
		<path class="st0" d="M381,64.7c0,3.6,0.4,5.7,1.8,7.9c1.6,2.7,4,4.1,7.2,4.1c1.6,0,3.3-0.3,6.7-1.1l0.4,2.6c0,0-2.5,1-3.6,1.4
			c-3.1,1.1-5.6,1.6-7.5,1.6c-8,0-13-6.1-13-15.6c0-5.2,1.7-10.1,4.8-13.2c2.4-2.5,5-3.5,8.7-3.5c4.3,0,7.5,1.9,9.2,5.2
			c1.3,2.6,1.7,5.1,1.8,10.6H381z M388.5,54.1c-0.6-1.5-1.6-2.1-3.1-2.1c-3,0-4.2,2.6-4.3,9.4l8.4-0.9
			C389.4,57.6,389.1,55.5,388.5,54.1z"/>
	</g>
	<g>
		<path class="st0" d="M354.5,80.6v-1.9l4.2-2.5V49.1l-11.2,31.8h-1.4L335,49.1v27.1l4.2,2.5v1.9h-12.8v-1.9l4.5-2.5V43l-4.5-2.5
			v-1.9h12.8l9.9,27.8l9.4-27.8h12.3v1.9l-4.4,2.5v33.2l4.4,2.5v1.9H354.5z"/>
	</g>
	<g>
		<path class="st0" d="M323.8,54l-9.5,27.3H311c-1.8-6.8-3.6-13.5-5.5-20.2l-6.2,20.2h-3.5L287.1,54l-3.3-2.5v-1.9h14.6v1.9
			l-3.5,2.5l3.2,10.6c0.5,1.6,0.8,2.7,1.3,5l6-20h4l4.1,14.9c0.5,1.7,0.8,3.2,1.3,5.1l5.1-15.6l-3.5-2.5v-1.9h10.4v1.9L323.8,54z"/>
	</g>
	<g>
		<path class="st0" d="M272,81.4V78c-1.7,0.8-3.3,1.4-5,2.1c-2.1,0.8-2.9,1.2-4.1,1.2c-2.3,0-4.2-1-5.5-2.6c-1.5-1.9-2.1-4-2.1-8.4
			V55l-4.5-1.7v-1.9l12.5-2.6v19.6c0,3.4,0.1,4.6,0.8,5.8c0.7,1.4,1.8,1.8,4.3,1.8c1.4,0,2.1-0.2,3.5-0.4V55l-4.5-1.7v-1.9l12.5-2.6
			v26.7l4.5,1.6V79L272,81.4z"/>
	</g>
	<g>
		<path class="st0" d="M235.3,81.6c-8.8,0-14.3-6.2-14.3-15.8c0-10.5,6.3-16.8,14.6-16.8c7.9,0,14.1,5.5,14.1,15.6
			C249.8,75,243.7,81.6,235.3,81.6z M235.3,52.4c-3.8,0-5.9,4.3-5.9,12c0,4.6,0.9,13.4,6,13.4s6-7.3,6-12.1
			C241.4,60.9,240.6,52.4,235.3,52.4z"/>
	</g>
	<g>
		<path class="st0" d="M202.7,81.3c-3.6,0-7.1-0.9-10.5-1.6V42.3l-4.7-1.6v-1.9l12.8-2.8V52c2.3-1.1,3.2-1.5,4.2-1.9
			c1.6-0.7,2.8-1.2,4.5-1.2c5.5,0,9.8,6.4,9.8,14.5C218.8,74,212.3,81.3,202.7,81.3z M208.5,57.1c-1.3-2.1-2.9-2.9-5.7-2.9
			c-0.8,0-1.4,0.1-2.5,0.4v23.1c0.7,0.1,1.4,0.1,2.1,0.1c2.2,0,3.9-0.8,5.3-2.3c1.8-2.1,2.8-5.4,2.8-9.9
			C210.5,62,209.8,59.1,208.5,57.1z"/>
	</g>
	<g>
		<path class="st0" d="M174.9,81.7v-3.8c-1.9,1-2.5,1.3-4.3,2.2c-1.9,0.9-2.7,1.2-4.5,1.2c-5.4,0-9.8-6.6-9.8-14.8
			c0-10.2,6.5-17.2,14.7-17.2c1.4,0,2.2,0.1,3.8,0.5v-7.4l-4.7-1.6v-1.9l12.8-2.8v39.5l4.5,1.6V79L174.9,81.7z M174.9,52.9
			c-1-0.1-2-0.2-2.6-0.2c-4.7,0-7.6,4.7-7.6,12.1c0,5.8,2,11.2,7.4,11.2c1,0,1.6-0.1,2.7-0.4V52.9z"/>
	</g>
	<g>
		<path class="st0" d="M139.7,80.6v-1.9l3.1-2.5V62.1c0-3.8-0.1-4.7-0.8-6c-0.7-1.3-1.8-1.9-3.9-1.9c-1.1,0-2.2,0.1-3.9,0.4v21.6
			l3.4,2.5v1.9h-15.9v-1.9l4.5-2.5V55l-4.5-1.7v-1.9l12.5-2.6v3.5c1.8-0.8,3.2-1.5,4.9-2.2c2.6-1,3.2-1.1,4.2-1.1
			c1.9,0,4.4,0.9,5.6,2.8c1.5,2.1,2,4.1,2,8.5v16.1l4.5,2.5v1.9H139.7z"/>
	</g>
	<g>
		<path class="st0" d="M117.7,80.1c-1.5,0.6-3.1,1.1-4.7,1.1c-2.1,0-3-0.7-3.9-3.1c0,0-1.4,0.9-2.8,1.8c-1.7,1-2.8,1.3-4.7,1.3
			c-4.5,0-7.8-3.4-7.8-8.2c0-3.9,2.2-6.8,6-7.8c1.9-0.5,3.8-0.8,7.6-1.2c1-0.1,1-0.1,1.6-0.2v-7.1c0-2.1-0.3-3.3-1-4
			c-0.5-0.4-1.1-0.6-2.2-0.6c-0.6,0-1.1,0.1-1.9,0.2l-2.4,5.7h-5.3v-6.4c0,0,1.8-0.6,4.1-1.3c3.3-1.1,4.9-1.4,7.5-1.4
			c2.5,0,4.3,0.4,5.8,1.4c2.4,1.4,3.1,3.2,3.1,6.7v18.2c0,0.4,0.3,0.6,1,0.8l3.5,1.1v1.9C120.1,79.4,117.7,80.1,117.7,80.1z
			 M108.9,66.6c-0.9,0.2-1.2,0.2-2.6,0.5c-3.4,0.5-4.7,1.8-4.7,4.8c0,3,1.4,4.4,4.5,4.4c0.8,0,1.4,0,2.5-0.2l0.3-0.1V66.6z"/>
	</g>
	<g>
		<path class="st0" d="M91.8,80.6H66.1v-1.9l4.5-2.4V43l-4.5-2.5v-1.9h17.2v1.9L78.9,43v34.5h7.6l3.3-7.5h2.9L91.8,80.6z"/>
	</g>
</g>
<polygon points="42.8,49.6 42.8,73.7 62.7,61.8 "/>
</svg>
