<?xml version="1.0" encoding="utf-8"?>
<!-- Generator: Adobe Illustrator 24.3.0, SVG Export Plug-In . SVG Version: 6.00 Build 0)  -->
<svg version="1.1" id="Laag_1" xmlns="http://www.w3.org/2000/svg" xmlns:xlink="http://www.w3.org/1999/xlink" x="0px" y="0px"
	 viewBox="0 0 841.9 595.3" style="enable-background:new 0 0 841.9 595.3;" xml:space="preserve">
<style type="text/css">
	.st0{fill:#1BBBE9;}
	.st1{fill:#58585A;}
</style>
<g>
	<rect x="68.9" y="62.4" class="st0" width="1.1" height="26.4"/>
</g>
<g>
	<path class="st1" d="M91.9,62.4l-3.4,26.1H78.2l-3.9-26.1h7.2c0.8,7.2,1.4,13.3,1.8,18.3c0.4-5,0.7-9.5,1.1-13.4l0.5-4.9H91.9z"/>
	<path class="st1" d="M107.7,78.2h-8.4v4.6c0,1,0.1,1.6,0.2,1.9c0.1,0.3,0.4,0.4,0.8,0.4c0.5,0,0.8-0.2,1-0.6
		c0.2-0.4,0.3-1.1,0.3-2.2v-2.8h6.2v1.6c0,1.3-0.1,2.3-0.2,3c-0.2,0.7-0.6,1.5-1.2,2.3c-0.6,0.8-1.4,1.4-2.3,1.8
		c-0.9,0.4-2.1,0.6-3.5,0.6c-1.4,0-2.6-0.2-3.6-0.6c-1.1-0.4-1.9-0.9-2.5-1.6c-0.6-0.7-1-1.5-1.2-2.3c-0.2-0.8-0.3-2-0.3-3.6v-6.2
		c0-1.9,0.3-3.3,0.8-4.4c0.5-1.1,1.3-1.9,2.5-2.5c1.1-0.6,2.5-0.9,4-0.9c1.8,0,3.3,0.3,4.5,1c1.2,0.7,2,1.6,2.5,2.8
		c0.5,1.1,0.7,2.8,0.7,4.8V78.2z M101.2,74.7v-1.6c0-1.1-0.1-1.8-0.2-2.2c-0.1-0.3-0.4-0.5-0.7-0.5c-0.5,0-0.7,0.1-0.8,0.4
		c-0.1,0.3-0.2,1-0.2,2.2v1.6H101.2z"/>
	<path class="st1" d="M124.8,78.2h-8.4v4.6c0,1,0.1,1.6,0.2,1.9c0.1,0.3,0.4,0.4,0.8,0.4c0.5,0,0.8-0.2,1-0.6
		c0.2-0.4,0.3-1.1,0.3-2.2v-2.8h6.2v1.6c0,1.3-0.1,2.3-0.2,3c-0.2,0.7-0.6,1.5-1.2,2.3c-0.6,0.8-1.4,1.4-2.3,1.8
		c-0.9,0.4-2.1,0.6-3.5,0.6c-1.4,0-2.6-0.2-3.6-0.6c-1.1-0.4-1.9-0.9-2.5-1.6c-0.6-0.7-1-1.5-1.2-2.3c-0.2-0.8-0.3-2-0.3-3.6v-6.2
		c0-1.9,0.3-3.3,0.8-4.4c0.5-1.1,1.3-1.9,2.5-2.5c1.1-0.6,2.5-0.9,4-0.9c1.8,0,3.3,0.3,4.5,1c1.2,0.7,2,1.6,2.5,2.8
		c0.5,1.1,0.7,2.8,0.7,4.8V78.2z M118.2,74.7v-1.6c0-1.1-0.1-1.8-0.2-2.2c-0.1-0.3-0.4-0.5-0.7-0.5c-0.5,0-0.7,0.1-0.8,0.4
		c-0.1,0.3-0.2,1-0.2,2.2v1.6H118.2z"/>
	<path class="st1" d="M133.5,62.4v5.9c0.6-0.5,1.2-0.9,1.8-1.2c0.6-0.3,1.3-0.4,2.1-0.4c1.1,0,2.1,0.3,2.9,0.9
		c0.8,0.6,1.3,1.2,1.5,2c0.2,0.8,0.3,2.1,0.3,4.2v14.8h-6.5V73.4c0-1.2-0.1-2-0.2-2.4c-0.1-0.4-0.4-0.5-0.8-0.5
		c-0.4,0-0.7,0.2-0.8,0.5c-0.1,0.4-0.2,1.1-0.2,2.2v15.3H127V62.4H133.5z"/>
	<path class="st1" d="M159.2,74.6v5.2c0,1.9-0.1,3.3-0.3,4.2c-0.2,0.9-0.6,1.7-1.2,2.5c-0.6,0.8-1.4,1.4-2.4,1.7
		c-1,0.4-2.1,0.6-3.4,0.6c-1.4,0-2.7-0.2-3.7-0.5s-1.8-0.8-2.3-1.4c-0.6-0.6-0.9-1.4-1.2-2.3c-0.2-0.9-0.4-2.3-0.4-4.1v-5.5
		c0-2,0.2-3.5,0.6-4.7c0.4-1.1,1.2-2,2.3-2.7c1.1-0.7,2.5-1,4.3-1c1.5,0,2.7,0.2,3.8,0.7c1,0.4,1.9,1,2.4,1.7c0.6,0.7,1,1.4,1.2,2.2
		C159.1,72,159.2,73.1,159.2,74.6z M152.7,73c0-1.1-0.1-1.8-0.2-2.1c-0.1-0.3-0.4-0.4-0.8-0.4c-0.4,0-0.7,0.1-0.8,0.4
		c-0.1,0.3-0.2,1-0.2,2.1v9.7c0,1,0.1,1.7,0.2,2c0.1,0.3,0.4,0.5,0.8,0.5c0.4,0,0.7-0.1,0.8-0.4c0.1-0.3,0.2-0.9,0.2-1.8V73z"/>
	<path class="st1" d="M176.3,67.1v21.4h-6.6l0.1-1.8c-0.5,0.7-1,1.3-1.7,1.6c-0.7,0.4-1.4,0.5-2.3,0.5c-1,0-1.8-0.2-2.4-0.5
		c-0.6-0.3-1.1-0.8-1.4-1.4c-0.3-0.6-0.5-1.2-0.6-1.8c-0.1-0.6-0.1-1.8-0.1-3.7V67.1h6.5v14.5c0,1.7,0.1,2.7,0.2,3
		c0.1,0.3,0.4,0.5,0.8,0.5c0.5,0,0.8-0.2,0.9-0.5c0.1-0.3,0.1-1.4,0.1-3.1V67.1H176.3z"/>
	<path class="st1" d="M193.6,62.4v26.1h-6.5v-1.6c-0.6,0.6-1.3,1.1-2,1.4c-0.7,0.3-1.4,0.5-2.2,0.5c-1,0-1.9-0.3-2.6-0.8
		c-0.7-0.5-1.2-1.1-1.4-1.8c-0.2-0.7-0.3-1.8-0.3-3.4v-10c0-1.6,0.1-2.8,0.3-3.5c0.2-0.7,0.7-1.3,1.4-1.8c0.8-0.5,1.7-0.8,2.7-0.8
		c0.8,0,1.5,0.1,2.2,0.4c0.7,0.3,1.3,0.7,1.8,1.3v-6.1H193.6z M187.1,72.5c0-0.8-0.1-1.3-0.2-1.6c-0.1-0.3-0.4-0.4-0.8-0.4
		c-0.4,0-0.7,0.1-0.8,0.4c-0.1,0.2-0.2,0.8-0.2,1.6V83c0,0.9,0.1,1.4,0.2,1.7c0.1,0.3,0.4,0.4,0.7,0.4c0.4,0,0.7-0.2,0.8-0.5
		c0.1-0.3,0.2-1.1,0.2-2.2V72.5z"/>
	<path class="st1" d="M210.8,78.2h-8.4v4.6c0,1,0.1,1.6,0.2,1.9c0.1,0.3,0.4,0.4,0.8,0.4c0.5,0,0.8-0.2,1-0.6
		c0.2-0.4,0.3-1.1,0.3-2.2v-2.8h6.2v1.6c0,1.3-0.1,2.3-0.2,3c-0.2,0.7-0.6,1.5-1.2,2.3c-0.6,0.8-1.4,1.4-2.3,1.8
		c-0.9,0.4-2.1,0.6-3.5,0.6c-1.4,0-2.6-0.2-3.6-0.6c-1.1-0.4-1.9-0.9-2.5-1.6c-0.6-0.7-1-1.5-1.2-2.3c-0.2-0.8-0.3-2-0.3-3.6v-6.2
		c0-1.9,0.3-3.3,0.8-4.4c0.5-1.1,1.3-1.9,2.5-2.5c1.1-0.6,2.5-0.9,4-0.9c1.8,0,3.3,0.3,4.5,1c1.2,0.7,2,1.6,2.5,2.8
		c0.5,1.1,0.7,2.8,0.7,4.8V78.2z M204.3,74.7v-1.6c0-1.1-0.1-1.8-0.2-2.2c-0.1-0.3-0.4-0.5-0.7-0.5c-0.5,0-0.7,0.1-0.8,0.4
		c-0.1,0.3-0.2,1-0.2,2.2v1.6H204.3z"/>
	<path class="st1" d="M219.6,67.1l-0.2,2.8c0.9-2,2.3-3.1,4.1-3.2v7.5c-1.2,0-2.1,0.2-2.6,0.5c-0.6,0.3-0.9,0.8-1,1.3
		c-0.1,0.6-0.2,1.9-0.2,4v8.4h-6.5V67.1H219.6z"/>
	<path class="st1" d="M231.7,62.4v3.4H225v-3.4H231.7z M231.7,67.1v21.4H225V67.1H231.7z"/>
	<path class="st1" d="M241.1,67.1V84c0,2,0,3.3-0.1,4c-0.1,0.7-0.3,1.3-0.7,1.9c-0.4,0.5-1,0.9-1.7,1.2c-0.7,0.3-1.7,0.4-3.1,0.4
		h-2.5v-3.4c0.8,0,1.2-0.1,1.3-0.3c0.1-0.2,0.1-1.2,0.1-3.2V67.1H241.1z M241.1,62.4v3.4h-6.7v-3.4H241.1z"/>
	<path class="st1" d="M269.3,62.4v5.2h-4v20.9h-6.8V67.6h-4v-5.2H269.3z"/>
	<path class="st1" d="M284.2,78.2h-8.4v4.6c0,1,0.1,1.6,0.2,1.9c0.1,0.3,0.4,0.4,0.8,0.4c0.5,0,0.8-0.2,1-0.6
		c0.2-0.4,0.3-1.1,0.3-2.2v-2.8h6.2v1.6c0,1.3-0.1,2.3-0.2,3c-0.2,0.7-0.6,1.5-1.2,2.3c-0.6,0.8-1.4,1.4-2.3,1.8
		c-0.9,0.4-2.1,0.6-3.5,0.6c-1.4,0-2.6-0.2-3.6-0.6c-1.1-0.4-1.9-0.9-2.5-1.6c-0.6-0.7-1-1.5-1.2-2.3c-0.2-0.8-0.3-2-0.3-3.6v-6.2
		c0-1.9,0.3-3.3,0.8-4.4c0.5-1.1,1.3-1.9,2.5-2.5c1.2-0.6,2.5-0.9,4-0.9c1.8,0,3.3,0.3,4.5,1c1.2,0.7,2,1.6,2.5,2.8
		c0.5,1.1,0.7,2.8,0.7,4.8V78.2z M277.6,74.7v-1.6c0-1.1-0.1-1.8-0.2-2.2c-0.1-0.3-0.4-0.5-0.7-0.5c-0.5,0-0.7,0.1-0.8,0.4
		c-0.1,0.3-0.2,1-0.2,2.2v1.6H277.6z"/>
	<path class="st1" d="M300.8,75.2h-6.1v-2.5c0-0.9-0.1-1.4-0.2-1.8c-0.1-0.3-0.4-0.5-0.8-0.5c-0.4,0-0.6,0.1-0.8,0.4
		c-0.1,0.3-0.2,0.9-0.2,1.8v10.1c0,0.8,0.1,1.3,0.3,1.7c0.2,0.4,0.5,0.6,0.9,0.6c0.4,0,0.7-0.2,0.9-0.6c0.2-0.4,0.2-1.2,0.2-2.3
		v-2.5h5.8c0,1.7-0.1,3-0.2,3.8c-0.1,0.9-0.5,1.7-1.1,2.6c-0.6,0.9-1.4,1.6-2.4,2c-1,0.5-2.2,0.7-3.6,0.7c-1.8,0-3.3-0.3-4.4-0.9
		c-1.1-0.6-1.8-1.5-2.3-2.6c-0.4-1.1-0.7-2.7-0.7-4.8v-6.1c0-1.8,0.2-3.2,0.5-4.1c0.4-0.9,1.1-1.7,2.3-2.5c1.2-0.7,2.6-1.1,4.3-1.1
		c1.7,0,3.1,0.4,4.3,1.1c1.2,0.7,2,1.6,2.4,2.7C300.6,71.6,300.8,73.2,300.8,75.2z"/>
	<path class="st1" d="M309.4,62.4v5.9c0.6-0.5,1.2-0.9,1.8-1.2c0.6-0.3,1.3-0.4,2.1-0.4c1.1,0,2.1,0.3,2.9,0.9
		c0.8,0.6,1.3,1.2,1.5,2c0.2,0.8,0.3,2.1,0.3,4.2v14.8h-6.5V73.4c0-1.2-0.1-2-0.2-2.4c-0.1-0.4-0.4-0.5-0.8-0.5
		c-0.4,0-0.7,0.2-0.8,0.5c-0.1,0.4-0.2,1.1-0.2,2.2v15.3h-6.5V62.4H309.4z"/>
	<path class="st1" d="M326.9,67.1l-0.1,1.9c0.5-0.8,1-1.4,1.7-1.8c0.7-0.4,1.5-0.6,2.4-0.6c1.1,0,2,0.3,2.7,0.8
		c0.7,0.5,1.2,1.2,1.4,2c0.2,0.8,0.3,2.1,0.3,4v15h-6.5V73.7c0-1.5,0-2.4-0.1-2.7c-0.1-0.3-0.4-0.5-0.8-0.5c-0.5,0-0.8,0.2-0.9,0.6
		c-0.1,0.4-0.2,1.4-0.2,3v14.5h-6.5V67.1H326.9z"/>
	<path class="st1" d="M344.4,62.4v3.4h-6.7v-3.4H344.4z M344.4,67.1v21.4h-6.7V67.1H344.4z"/>
	<path class="st1" d="M361.6,78.2h-8.4v4.6c0,1,0.1,1.6,0.2,1.9c0.1,0.3,0.4,0.4,0.8,0.4c0.5,0,0.8-0.2,1-0.6
		c0.2-0.4,0.3-1.1,0.3-2.2v-2.8h6.2v1.6c0,1.3-0.1,2.3-0.2,3c-0.2,0.7-0.6,1.5-1.2,2.3c-0.6,0.8-1.4,1.4-2.3,1.8
		c-0.9,0.4-2.1,0.6-3.5,0.6c-1.4,0-2.6-0.2-3.6-0.6c-1.1-0.4-1.9-0.9-2.5-1.6c-0.6-0.7-1-1.5-1.2-2.3c-0.2-0.8-0.3-2-0.3-3.6v-6.2
		c0-1.9,0.3-3.3,0.8-4.4c0.5-1.1,1.3-1.9,2.5-2.5c1.1-0.6,2.5-0.9,4-0.9c1.8,0,3.3,0.3,4.5,1c1.2,0.7,2,1.6,2.5,2.8
		c0.5,1.1,0.7,2.8,0.7,4.8V78.2z M355.1,74.7v-1.6c0-1.1-0.1-1.8-0.2-2.2c-0.1-0.3-0.4-0.5-0.7-0.5c-0.5,0-0.7,0.1-0.8,0.4
		c-0.1,0.3-0.2,1-0.2,2.2v1.6H355.1z"/>
	<path class="st1" d="M377.9,67.1l-2.7,8.5l3.4,12.9h-6.2l-2.1-9.3l0,9.3h-6.5V62.4h6.5l0,11l2.1-6.2H377.9z"/>
</g>
</svg>
