{
    "key": "group_60e589709f88a",
    "title": "Archief",
    "fields": [
        {
            "key": "field_60e58974d3aec",
            "label": "Archief voor type",
            "name": "archive_for_type",
            "type": "radio",
            "instructions": "",
            "required": 0,
            "conditional_logic": 0,
            "wrapper": {
                "width": "",
                "class": "",
                "id": ""
            },
            "choices": {
                "artikelen": "Alle",
                "columns": "Columns",
                "fotoreportages": "Fotoreportages",
                "infographics": "Infographics",
                "podcasts": "Podcasts",
                "tests": "Tests",
                "videos": "Video's"
            },
            "allow_null": 0,
            "other_choice": 0,
            "default_value": "",
            "layout": "vertical",
            "return_format": "value",
            "save_other_choice": 0
        }
    ],
    "location": [
        [
            {
                "param": "page_template",
                "operator": "==",
                "value": "template-type-archive.php"
            }
        ]
    ],
    "menu_order": 0,
    "position": "acf_after_title",
    "style": "default",
    "label_placement": "top",
    "instruction_placement": "label",
    "hide_on_screen": "",
    "active": true,
    "description": "",
    "modified": 1625735570
}